{
  "swagger": "2.0",
  "info": {
    "description": "API Description",
    "version": "1.0.0",
    "title": "Swagger API"
  },
  "tags": [],
  "paths": {
    "/v1/promos": {
      "post": {
        "summary": "Create a promo code",
        "tags": [],
        "parameters": [
          {
            "in": "body",
            "name": "Promo description",
            "schema": {
              "type": "object"
            }
          }
        ],
        "produces": [
          "application/json"
        ],
        "responses": {
          "201": {
            "description": "Done"
          }
        }
      }
    },
    "/v1/advantage": {
      "post": {
        "summary": "Check if a user gets an advantage from a promo",
        "tags": [],
        "parameters": [
          {
            "in": "body",
            "name": "Advantage query",
            "schema": {
              "$ref": "#/definitions/CheckAdvantageRequest"
            }
          }
        ],
        "produces": [
          "application/json"
        ],
        "responses": {
          "200": {
            "description": "User gets an advantage from promo",
            "schema": {
              "$ref": "#/definitions/AdvantageResponse"
            }
          },
          "422": {
            "description": "Promo rule violation",
            "schema": {
              "$ref": "#/definitions/ApiResponse"
            }
          },
          "500": {
            "description": "Internal error (probably weather request)",
            "schema": {
              "$ref": "#/definitions/ApiResponse"
            }
          }
        }
      }
    }
  },
  "parameters": {},
  "definitions": {
    "ApiResponse": {
      "type": "object",
      "required": [
        "status",
        "messages"
      ],
      "properties": {
        "status": {
          "type": "string"
        },
        "messages": {
          "type": "array",
          "items": {
            "type": "string"
          }
        }
      }
    },
    "AdvantageResponse": {
      "allOf": [
        {
          "$ref": "#/definitions/ApiResponse"
        },
        {
          "type": "object",
          "required": [
            "advantage"
          ],
          "properties": {
            "accounts": {
              "type": "object"
            }
          }
        }
      ]
    },
    "CheckAdvantageRequest": {
      "type": "object",
      "required": [
        "promocode_name",
        "arguments"
      ],
      "properties": {
        "promocode_name": {
          "type": "string"
        },
        "arguments": {
          "type": "object",
          "required": [
            "age",
            "meteo"
          ],
          "properties": {
            "age": { "type": "number" },
            "meteo": {
              "type": "object",
              "required": [
                "town"
              ],
              "properties": {
                "town": { "type": "string"}
              }
            }
          }
        }
      }
    }
  }
}
